0; Men&rsquo;s Fitness Workout Manual 2015 + 10 Week Body Plan - Yo; 02/25/2015
1; English Pronunciation Books and Audio Books Collection - Mantesh; 02/25/2015
2; Assorted Magazines Bundle - February 23 2015 (True PDF); 02/25/2015
3; Speed Mathematics - Secret Skills Collection; 02/25/2015
4; English: How to Speak English Fluently in 1 Week - Edward Clemon; 02/25/2015
5; Computer & Gadget Magazines - February 20 2015 (True PDF); 02/25/2015
6; 50 Shades of Herbs: The Best Natural Remedies for Better Sex, Be; 02/25/2015
7; Learning Android Software Development ABEE; 02/25/2015
8; Boost Your Brain - Switch on Your Brain - Joel Levy - Mantesh; 02/25/2015
9; Fitness by Penis:  Method to Enlarge Your Penis - Peter Pandore; 02/25/2015
10; 150 Best Minimalist House Ideas; 02/25/2015
11; The 9 Principles for a Lean & Defined Body - Philip Hoffman; 02/25/2015
12; Computer Magazines Bundle - February 13 2015 (True PDF); 02/25/2015
13; New York Times Bestsellers (January 04, 2015)(Fiction+Non-Fictio; 02/25/2015
14; Reflexology: Beginners Guide to Eliminate Pain, Lose Weight and ; 02/25/2015
15; Assorted Magazines Bundle - February 21 2015 (True PDF); 02/25/2015
16; The Great Book Of Best Quotes Of All Time.; 02/25/2015
17; The 48 Laws of Power by Robert Greene; 02/25/2015
18; Mens Magazines - February 10 2015 (True PDF); 02/25/2015
19; Womens Magazines Bundle - February 21 2015 (True PDF); 02/25/2015
20; Photography Magazines - February 13 2015 (True PDF); 02/25/2015
21; Jokes Books Collection - Mantesh; 02/25/2015
22; Science Magazines - February 14 2015 (True PDF); 02/25/2015
23; Assorted Magazine Bundle - February 14 2015 (True PDF); 02/25/2015
24; The Secrets to Writing a Successful Business Plan - Hal Shelton; 02/25/2015
25; Educational Materials - Activity Books, Coloring Books, and Puzz; 02/25/2015
26; Yoga Basics for Men: An Intro to Man Flow Yoga - Dean Pohlman, P; 02/25/2015
27; Assorted Magazines Bundle - February 5 2015 (True PDF); 02/25/2015
28; Encyclopedia of Electronic Components Volume 1,2 +  Instruments ; 02/25/2015
29; 101 Ready-to-Use Excel Formulas - Michael Alexander, Dick Kuslei; 02/25/2015
30; Thomas Piketty - Capital in the Twenty-First Century [2014][A]; 02/25/2015
31; Assorted Magazine Bundle - February 18 2015 (True PDF); 02/25/2015
32; The Complete Guide to Bathrooms + Bath Planning Guidelines; 02/25/2015
33; The 21-Day Big Muscle Plan + The 21-Day Shred - The No-BS Traini; 02/25/2015
34; Illustrator's Guide to Pen and Pencil Drawing Techniques (gnv64); 02/25/2015
35; Wanderlust Magazines Bundle - 2014 2015 ; 02/25/2015
36; Guitar Books for Dummies (gnv64); 02/25/2015
37; The Complete Book of Drawing Techniques [PDF] - Oceanhawk; 02/25/2015
38; The Muscle And Fitness Cookbook: 55 Fast & Easy Meals for ; 02/25/2015
39; Assorted Magazines Bundle - February 20 2015 (True PDF); 02/25/2015
40; Architecture Books Collection 90 Books; 02/25/2015
41; Five Good Minutes in the Evening - Jeffrey Brantley, Wendy Mills; 02/25/2015
42; Show Me How: 500 Things You Should Know - Instructions for Life ; 02/25/2015
43; The Hair Bible - A Complete Guide to Health and Care,Fabulous Ha; 02/25/2015
44; Maker Dad - Incredibly Cool  DIY Projects - Mark Frauenfelder ; 02/25/2015
45; The Official Guide for GMAT Review 2015  [PDF] [StormRG]; 02/25/2015
46; Tabloid Magazines - February 24 2015 (True PDF); 02/25/2015
47; Chi Kung - Warm Up Exercises,Health and Martial Arts collection; 02/25/2015
48; Tabloid Magazines Bundle - February 18 2015 (True PDF); 02/25/2015
49; Assorted Magazines Bundle - February 13 2015 (True PDF); 02/25/2015
50; How to Start a Home-based Computer Repair Business - Ryan Arter ; 02/25/2015
51; Superfoods at Every Meal - Nourish Your Family with Quick and Ea; 02/25/2015
52; The Mammoth Book of Best New Erotica - Maxim Jakubowski; 02/25/2015
53; Womens Magazines Bundle - February 14 2015 (True PDF); 02/25/2015
54; Swim Better, Swim Faster (gnv64); 02/25/2015
55; The Elements of Investing - Easy Lessons for Every Investor.pdf ; 02/25/2015
56; 1000 Foods To Eat Before You Die - Mimi Sheraton; 02/25/2015
57; Home & Garden Magazines - February 10 2015 (True PDF); 02/25/2015
58; Fluent in 3 Months -  Speak Any Language, English,French,Spanish; 02/25/2015
59; The Fault in Our Stars [EPUB]; 02/25/2015
60; The Mammoth Book of Erotica - 10 E-Books; 02/25/2015
61; Idiot's Guides: Basic Math and Pre-Algebra - Carolyn Wheater ; 02/25/2015
62; 4000 Essential English Words (Audio book + eBook) 5 - Paul Natio; 02/25/2015
63; Muay Thai Training Exercises; 02/25/2015
64; The Homeowner's DIY Guide to Electrical Wiring - David Herres - ; 02/25/2015
65; Assorted Magazines Bundle - February 11 2015 (True PDF); 02/25/2015
66; The Dirty Little Kindle Book Of Sex Quotes (Epub) Gooner; 02/25/2015
67; How to Think Like a Mathematician - A Companion to Undergraduate; 02/25/2015
68; Assorted Magazines Bundle - February 8 2015 (True PDF); 02/25/2015
69; Arts and Crafts,Drawing,Computers,Cooking,Handwriting ; 02/25/2015
70; Crocheting: BoxSet: The Complete Guide on Learning How to Croche; 02/25/2015
71; Food Magazines Bundle - February 19 2015 (True PDF); 02/25/2015
72; Practical Electronics for Inventors - 3rd Edition.epub Gooner; 02/25/2015
73; Introduction to Java Programming- Comprehensive, 10E [PDF] [Stor; 02/25/2015
74; Ken Follett - Century Trilogy(Books 1, 2 & 3) Epub, Mobi; 02/25/2015
75; Assorted Magazines - February 17 2015 (True PDF); 02/25/2015
76; Womens Magazines Bundle - February 9 2015 (True PDF); 02/25/2015
77; NY Times Best sellers Fiction & Non-Fiction (16 November 201; 02/25/2015
78; Life Skills: How to Do Almost Anything (Pdf,Epub,Mobi) - Mantesh; 02/25/2015
79; The 4000 English Words Essential for an Educated Vocabulary; 02/25/2015
80; The Art of Seduction by Robert Greene - PDF - WD; 02/25/2015
81; Marketing For Dummies, 4E (2014) [PDF] [StormRG]; 02/25/2015
82; Beginning Programming with Python For Dummies [PDF] [StormRG]; 02/25/2015
83; History Year by Year - The History Of The World From The Stone A; 02/25/2015
84; Automobile Magazines Bundle - February 17 2015 (True PDF); 02/25/2015
85; Home Garden & Travel Magazines - February 19 2015 (True PDF); 02/25/2015
86; The Girl on the Train - Paula Hawkins; 02/25/2015
87; Hacking Wireless Networks For Dummies; 02/25/2015
88; Home & Garden Magazines - February 3 2015 (True PDF); 02/25/2015
89; Penis Exercises - A Healthy Book for Enlargement, Enhancement, H; 02/25/2015
90; The Six Sigma Handbook - The Complete Guide for Greenbelts, Blac; 02/25/2015
91; The Firefly Five Language Visual Dictionary: English, Spanish, F; 02/25/2015
92; Project Management For Dummies, 4E [PDF] [StormRG]; 02/25/2015
93; Calculus- 1,001 Practice Problems For Dummies [PDF] [StormRG]; 02/25/2015
94; Womens Magazines Bundle - February 18 2015 (True PDF); 02/25/2015
95; 37 Roald Dahl E-Books; 02/25/2015
96; How to Build a Fire: And Other Handy Things Your Grandfather Kne; 02/25/2015
97; AutoCAD 2015- No Experience Required [PDF] [StormRG]; 02/25/2015
98; Bull Strength Conditioning Workouts  + Real Stone lifting - Joe ; 02/25/2015
99; Manga - The Ultimate Guide (gnv46); 02/25/2015
