0; Men&rsquo;s Fitness Workout Manual 2015 + 10 Week Body Plan - Yo; 03/06/2015
1; The Speed Math Bible - Transform your Brain - Yamada Takumi; 03/06/2015
2; English: How to Speak English Fluently in 1 Week - Edward Clemon; 03/06/2015
3; English Pronunciation Books and Audio Books Collection - Mantesh; 03/06/2015
4; Speed Mathematics - Secret Skills Collection; 03/06/2015
5; Boost Your Brain - Switch on Your Brain - Joel Levy - Mantesh; 03/06/2015
6; Sketching - Freehand and Digital Drawing Techniques for Artists ; 03/06/2015
7; Fitness by Penis:  Method to Enlarge Your Penis - Peter Pandore; 03/06/2015
8; 50 Shades of Herbs: The Best Natural Remedies for Better Sex, Be; 03/06/2015
9; The 9 Principles for a Lean & Defined Body - Philip Hoffman; 03/06/2015
10; Reflexology: Beginners Guide to Eliminate Pain, Lose Weight and ; 03/06/2015
11; Learning Android Software Development ABEE; 03/06/2015
12; Assorted Magazines Bundle - March 5 2015 (True PDF); 03/06/2015
13; Magazine Pack 02.20.2015 ABEE; 03/06/2015
14; Jokes Books Collection - Mantesh; 03/06/2015
15; The Secrets to Writing a Successful Business Plan - Hal Shelton; 03/06/2015
16; New York Times Bestsellers (January 04, 2015)(Fiction+Non-Fictio; 03/06/2015
17; The Great Book Of Best Quotes Of All Time.; 03/06/2015
18; The Great Big Book of Horrible Things - Matthew White - Mantesh; 03/06/2015
19; Drawing For Beginners! - Amy Taggart + Drawing Complete Guide Fo; 03/06/2015
20; Encyclopedia of Electronic Components Volume 1,2 +  Instruments ; 03/06/2015
21; Five Good Minutes in the Evening - Jeffrey Brantley, Wendy Mills; 03/06/2015
22; The 21-Day Big Muscle Plan + The 21-Day Shred - The No-BS Traini; 03/06/2015
23; Home Magazines Bundle - March 6 2015 (True PDF); 03/06/2015
24; Fluent in 3 Months -  Speak Any Language, English,French,Spanish; 03/06/2015
25; Educational Materials - Activity Books, Coloring Books, and Puzz; 03/06/2015
26; How to Draw Realistic Portraits: with Colored Pencils - Jasmina ; 03/06/2015
27; Assorted Magazines Bundle - March 3 2015 (True PDF); 03/06/2015
28; How to Start a Home-based Computer Repair Business - Ryan Arter ; 03/06/2015
29; The Hair Bible - A Complete Guide to Health and Care,Fabulous Ha; 03/06/2015
30; Food Magazines Bundle - March 5 2015 (True PDF); 03/06/2015
31; 1000 Foods To Eat Before You Die - Mimi Sheraton; 03/06/2015
32; Maker Dad - Incredibly Cool  DIY Projects - Mark Frauenfelder ; 03/06/2015
33; Motorcycle Magazines Bundle - March 5 2015 (True PDF); 03/06/2015
34; 101 Ready-to-Use Excel Formulas - Michael Alexander, Dick Kuslei; 03/06/2015
35; Embarrassing True Stories (gnv64); 03/06/2015
36; Assorted Magazines Bundle March 4 2015 (True PDF); 03/06/2015
37; The Complete Book of Drawing Techniques [PDF] - Oceanhawk; 03/06/2015
38; The Complete Guide to Bathrooms + Bath Planning Guidelines; 03/06/2015
39; Assorted Magazines Bundle - March 1 2015 (True PDF); 03/06/2015
40; The Muscle And Fitness Cookbook: 55 Fast & Easy Meals for ; 03/06/2015
41; Sex Trafficking - Inside the Business of Modern Slavery (gnv64); 03/06/2015
42; Show Me How: 500 Things You Should Know - Instructions for Life ; 03/06/2015
43; Superfoods at Every Meal - Nourish Your Family with Quick and Ea; 03/06/2015
44; Home & Garden Magazines - March 4 2015 (True PDF); 03/06/2015
45; Computer & Gadget Magazines - February 20 2015 (True PDF); 03/06/2015
46; 150 Best Minimalist House Ideas; 03/06/2015
47; Idiot's Guides: Basic Math and Pre-Algebra - Carolyn Wheater ; 03/06/2015
48; The Firefly Five Language Visual Dictionary: English, Spanish, F; 03/06/2015
49; Automobile Magazines Bundle - March 6 2015 (True PDF); 03/06/2015
50; The 48 Laws of Power by Robert Greene; 03/06/2015
51; Bicycling Buyers Guide - April 2015  USA; 03/06/2015
52; Assorted Magazines Bundle - February 28 2015 (True PDF); 03/06/2015
53; Food Magazines Bundle - February 27 2015 (True PDF); 03/06/2015
54; Gun Magazines Bundle - March 1 2015 (True PDF); 03/06/2015
55; Assorted Magazines Bundle - February 27 2015 (True PDF); 03/06/2015
56; The 4000 English Words Essential for an Educated Vocabulary; 03/06/2015
57; Womens Magazines Bundle - March 6 2015 (True PDF); 03/06/2015
58; Hacking Wireless Networks For Dummies; 03/06/2015
59; Penthouse Black Label - March 2015  AU; 03/06/2015
60; Computeractive - March 17, 2015  UK; 03/06/2015
61; Anatolia - Adventures in Turkish Cooking (gnv64); 03/06/2015
62; Life Skills: How to Do Almost Anything (Pdf,Epub,Mobi) - Mantesh; 03/06/2015
63; The Ayurveda Encyclopedia - Ayurvedic Home Remedies Collection; 03/06/2015
64; Bicycle Magazines Bundle - March 4 2015 (True PDF); 03/06/2015
65; The Girl on the Train - Paula Hawkins; 03/06/2015
66; Penis Exercises - A Healthy Book for Enlargement, Enhancement, H; 03/06/2015
67; Discover Magazine USA - April 2015 (gnv64); 03/06/2015
68; Assorted Magazines Bundle - February 21 2015 (True PDF); 03/06/2015
69; Yoga Basics for Men: An Intro to Man Flow Yoga - Dean Pohlman, P; 03/06/2015
70; The Homeowner's DIY Guide to Electrical Wiring - David Herres - ; 03/06/2015
71; Photography Magazines - February 13 2015 (True PDF); 03/06/2015
72; Assorted Magazines Bundle - February 23 2015 (True PDF); 03/06/2015
73; Nature Anatomy (gnv64); 03/06/2015
74; Home & Garden Magazines - February 27 2015 (True PDF); 03/06/2015
75; The Book of Books: Recommended Reading: Best Books (Fiction and ; 03/06/2015
76; Design + Web Design books Collection; 03/06/2015
77; Science Magazines - February 14 2015 (True PDF); 03/06/2015
78; Computer Magazines Bundle - February 13 2015 (True PDF); 03/06/2015
79; 4000 Essential English Words (Audio book + eBook) 5 - Paul Natio; 03/06/2015
80; 100 Photographs That Changed The World (Photography Art Ebook).p; 03/06/2015
81; Working with Hand Tools: Techniques for Woodworking - Paul N. Ha; 03/06/2015
82; Assorted Magazines Bundle - February 26 2015 (True PDF); 03/06/2015
83; Playboy Nederland Maart 2015. PDF. DMT; 03/06/2015
84; Practical Electronics for Inventors - 3rd Edition.epub Gooner; 03/06/2015
85; Guitar Books for Dummies (gnv64); 03/06/2015
86; Tabloid Magazines Bundle - March 3 2015 (True PDF); 03/06/2015
87; Chris Kyle - American Sniper; 03/06/2015
88; Portrait Mastery in Black & White: Learn the Signature; 03/06/2015
89; The Flower Gardener's Bible - Guide to Blooms - Lewis Hill, Nanc; 03/06/2015
90; Learning PHP, MySQL, JavaScript, CSS & HTML5, 3e (2014).; 03/06/2015
91; Crocheting: BoxSet: The Complete Guide on Learning How to Croche; 03/06/2015
92; How to Study - Ron Fry - Mantesh; 03/06/2015
93; Time Magazine USA - 23 February 2015 (gnv64); 03/06/2015
94; How to Be Your Own Home Electrician,Troubleshooting and Testing ; 03/06/2015
95; Men's Fitness UK - 20 Minute Workouts 2015; 03/06/2015
96; 10 Secrets to Growing Black Hair Long and Fast - C Collins - Man; 03/06/2015
97; Playboy - March 2015 ZA; 03/06/2015
98; Men's Health Push, Pull, Swing: The Fat-Torching- Myatt Murphy; 03/06/2015
99; The Complete Guide to the Toefl Test - IBT Edition (Malestrom); 03/06/2015
