0; Men&rsquo;s Fitness Workout Manual 2015 + 10 Week Body Plan - Yo; 03/16/2015
1; Computer,Technology and Engineering And More Educational Books; 03/16/2015
2; English: How to Speak English Fluently in 1 Week - Edward Clemon; 03/16/2015
3; Speed Mathematics - Secret Skills Collection; 03/16/2015
4; Boost Your Brain - Switch on Your Brain - Joel Levy - Mantesh; 03/16/2015
5; The Speed Math Bible - Transform your Brain - Yamada Takumi; 03/16/2015
6; English Pronunciation Books and Audio Books Collection - Mantesh; 03/16/2015
7; The Future of Architecture in 100 Buildings - Marc Kushner,Tonya; 03/16/2015
8; Fitness by Penis:  Method to Enlarge Your Penis - Peter Pandore; 03/16/2015
9; Reflexology: Beginners Guide to Eliminate Pain, Lose Weight and ; 03/16/2015
10; Sketching - Freehand and Digital Drawing Techniques for Artists ; 03/16/2015
11; The 9 Principles for a Lean & Defined Body - Philip Hoffman; 03/16/2015
12; 50 Shades of Herbs: The Best Natural Remedies for Better Sex, Be; 03/16/2015
13; The Great Book Of Best Quotes Of All Time.; 03/16/2015
14; The Secrets to Writing a Successful Business Plan - Hal Shelton; 03/16/2015
15; Jokes Books Collection - Mantesh; 03/16/2015
16; Assorted Magazines Bundle - March 15 2015 (True PDF); 03/16/2015
17; New York Times Bestsellers (January 04, 2015)(Fiction+Non-Fictio; 03/16/2015
18; Encyclopedia of Electronic Components Volume 1,2 +  Instruments ; 03/16/2015
19; Learning Android Software Development ABEE; 03/16/2015
20; The 21-Day Big Muscle Plan + The 21-Day Shred - The No-BS Traini; 03/16/2015
21; Drawing For Beginners! - Amy Taggart + Drawing Complete Guide Fo; 03/16/2015
22; Assorted Magazines Bundle - March 13 2015 (True PDF); 03/16/2015
23; Fruit and Vegetables in Pots (gnv64); 03/16/2015
24; Assorted Magazines Bundle - March 14 2015 (True PDF); 03/16/2015
25; The Complete Book of Drawing Techniques [PDF] - Oceanhawk; 03/16/2015
26; 101 Ready-to-Use Excel Formulas - Michael Alexander, Dick Kuslei; 03/16/2015
27; The Great Big Book of Horrible Things - Matthew White - Mantesh; 03/16/2015
28; Fluent in 3 Months -  Speak Any Language, English,French,Spanish; 03/16/2015
29; Five Good Minutes in the Evening - Jeffrey Brantley, Wendy Mills; 03/16/2015
30; Magazine Pack 02.20.2015 ABEE; 03/16/2015
31; How to Start a Home-based Computer Repair Business - Ryan Arter ; 03/16/2015
32; Educational Materials - Activity Books, Coloring Books, and Puzz; 03/16/2015
33; 5 Chess Books - March 2015 (gnv64); 03/16/2015
34; The Hair Bible - A Complete Guide to Health and Care,Fabulous Ha; 03/16/2015
35; Assorted Magazines Bundle - March 12 2015 (True PDF); 03/16/2015
36; Maker Dad - Incredibly Cool  DIY Projects - Mark Frauenfelder ; 03/16/2015
37; How to Draw Realistic Portraits: with Colored Pencils - Jasmina ; 03/16/2015
38; The Muscle And Fitness Cookbook: 55 Fast & Easy Meals for ; 03/16/2015
39; Discworld Collection by Terry Pratchett; 03/16/2015
40; Computer & Gamer Magazines - March 13 2015 (True PDF); 03/16/2015
41; 1000 Foods To Eat Before You Die - Mimi Sheraton; 03/16/2015
42; Womens Magazines Bundle - March 15 2015 (True PDF); 03/16/2015
43; The Complete Guide to Bathrooms + Bath Planning Guidelines; 03/16/2015
44; Growing and Knowing Lavender (gnv64); 03/16/2015
45; The 48 Laws of Power by Robert Greene; 03/16/2015
46; How to Study - Ron Fry - Mantesh; 03/16/2015
47; Idiot's Guides: Basic Math and Pre-Algebra - Carolyn Wheater ; 03/16/2015
48; Sex Trafficking - Inside the Business of Modern Slavery (gnv64); 03/16/2015
49; The Firefly Five Language Visual Dictionary: English, Spanish, F; 03/16/2015
50; Show Me How: 500 Things You Should Know - Instructions for Life ; 03/16/2015
51; The 4000 English Words Essential for an Educated Vocabulary; 03/16/2015
52; Life Skills: How to Do Almost Anything (Pdf,Epub,Mobi) - Mantesh; 03/16/2015
53; Home & Garden Magazines - March 12 2015 (True PDF); 03/16/2015
54; Learning PHP, MySQL, JavaScript, CSS & HTML5, 3e (2014).; 03/16/2015
55; Financial Statement Analysis (11th Ed)(gnv64); 03/16/2015
56; Superfoods at Every Meal - Nourish Your Family with Quick and Ea; 03/16/2015
57; Computer & Gadget Magazines - February 20 2015 (True PDF); 03/16/2015
58; The Homeowner's DIY Guide to Electrical Wiring - David Herres - ; 03/16/2015
59; The Economist - March 14 2015  USA; 03/16/2015
60; How to Clear Your Home of Ghosts & Spirits,Haunted Places; 03/16/2015
61; Yoga Basics for Men: An Intro to Man Flow Yoga - Dean Pohlman, P; 03/16/2015
62; Hacking Wireless Networks For Dummies; 03/16/2015
63; 100 Photographs That Changed The World (Photography Art Ebook).p; 03/16/2015
64; The Girl on the Train - Paula Hawkins; 03/16/2015
65; 150 Best Minimalist House Ideas; 03/16/2015
66; Assorted Magazines Bundle - March 11 2015 (True PDF); 03/16/2015
67; Assorted Magazines Bundle - March 8 2015 (True PDF); 03/16/2015
68; Science - March 13 2015  USA; 03/16/2015
69; Guitar Books for Dummies (gnv64); 03/16/2015
70; Linux User & Developer Issue 150 - 2015  UK; 03/16/2015
71; Problem Solving 101: A Simple Book for Smart People -Mantesh; 03/16/2015
72; Penis Exercises - A Healthy Book for Enlargement, Enhancement, H; 03/16/2015
73; The Book of Books: Recommended Reading: Best Books (Fiction and ; 03/16/2015
74; Working with Hand Tools: Techniques for Woodworking - Paul N. Ha; 03/16/2015
75; The Ayurveda Encyclopedia - Ayurvedic Home Remedies Collection; 03/16/2015
76; The Art of Seduction by Robert Greene - PDF - WD; 03/16/2015
77; 10 Secrets to Growing Black Hair Long and Fast - C Collins - Man; 03/16/2015
78; TOP 50 MOST DELICIOUS EMPANADA RECIPES; 03/16/2015
79; Science Magazine - 6 March 2015 (gnv64); 03/16/2015
80; Truck Magazines Bundle - March 15 2015 (True PDF); 03/16/2015
81; Assorted Magazines Bundle - March 10 2015 (True PDF); 03/16/2015
82; Chris Kyle - American Sniper; 03/16/2015
83; 4000 Essential English Words (Audio book + eBook) 5 - Paul Natio; 03/16/2015
84; Swim Better, Swim Faster (gnv64); 03/16/2015
85;  The Illustrated Encyclopaedia of Costume and Fashion 1550-1920; 03/16/2015
86; Assorted Magazines Bundle - March 9 2015 (True PDF); 03/16/2015
87; IELTS Advantage: Reading ,Writing Skills - Jeremy Taylor , Jon W; 03/16/2015
88; Learn Chinese: Complete; 03/16/2015
89; ANTI-INFLAMMATORY DIET; 03/16/2015
90; How to Be Your Own Home Electrician,Troubleshooting and Testing ; 03/16/2015
91; Portrait Mastery in Black & White: Learn the Signature; 03/16/2015
92; Penthouse Black Label - March 2015  AU; 03/16/2015
93; THE ALL PURPOSE LENTIL COOKBOOK; 03/16/2015
94; Photography Magazines - February 13 2015 (True PDF); 03/16/2015
95; The Tai Chi Handbook - Ray Pawlett  + Better Body Workouts for W; 03/16/2015
96; Home Magazines Bundle - March 6 2015 (True PDF); 03/16/2015
97; Design + Web Design books Collection; 03/16/2015
98; Easy Chinese Recipes: From Dim Sum to Kung Pao (2011)pdf; 03/16/2015
99; Bigger Leaner Stronger - The Simple Science of Building the Ulti; 03/16/2015
