0; Men&rsquo;s Fitness Workout Manual 2015 + 10 Week Body Plan - Yo; 03/25/2015
1; English: How to Speak English Fluently in 1 Week - Edward Clemon; 03/25/2015
2; Computer,Technology and Engineering And More Educational Books; 03/25/2015
3; Speed Mathematics - Secret Skills Collection; 03/25/2015
4; Lonely Planet's Best in Travel 2015: The Best Trends, Destinatio; 03/25/2015
5; Boost Your Brain - Switch on Your Brain - Joel Levy - Mantesh; 03/25/2015
6; Fitness by Penis:  Method to Enlarge Your Penis - Peter Pandore; 03/25/2015
7; The Speed Math Bible - Transform your Brain - Yamada Takumi; 03/25/2015
8; English Pronunciation Books and Audio Books Collection - Mantesh; 03/25/2015
9; Reflexology: Beginners Guide to Eliminate Pain, Lose Weight and ; 03/25/2015
10; The Great Book Of Best Quotes Of All Time.; 03/25/2015
11; Sketching - Freehand and Digital Drawing Techniques for Artists ; 03/25/2015
12; The 9 Principles for a Lean & Defined Body - Philip Hoffman; 03/25/2015
13; 50 Shades of Herbs: The Best Natural Remedies for Better Sex, Be; 03/25/2015
14; The Secrets to Writing a Successful Business Plan - Hal Shelton; 03/25/2015
15; Jokes Books Collection - Mantesh; 03/25/2015
16; Assorted Magazines Bundle - March 24 2015 (True PDF); 03/25/2015
17; The Future of Architecture in 100 Buildings - Marc Kushner,Tonya; 03/25/2015
18; The Complete Book of Drawing Techniques [PDF] - Oceanhawk; 03/25/2015
19; Assorted Magazines Bundle - March 22 2015 (True PDF); 03/25/2015
20; 101 Ready-to-Use Excel Formulas - Michael Alexander, Dick Kuslei; 03/25/2015
21; Encyclopedia of Electronic Components Volume 1,2 +  Instruments ; 03/25/2015
22; Learning Android Software Development ABEE; 03/25/2015
23; Five Good Minutes in the Evening - Jeffrey Brantley, Wendy Mills; 03/25/2015
24; Assorted Magazines Bundle - March 21 2015 (True PDF); 03/25/2015
25; The 21-Day Big Muscle Plan + The 21-Day Shred - The No-BS Traini; 03/25/2015
26; New York Times Bestsellers (January 04, 2015)(Fiction+Non-Fictio; 03/25/2015
27; How to Start a Home-based Computer Repair Business - Ryan Arter ; 03/25/2015
28; Magazine Pack 02.20.2015 ABEE; 03/25/2015
29; Drawing For Beginners! - Amy Taggart + Drawing Complete Guide Fo; 03/25/2015
30; Fluent in 3 Months -  Speak Any Language, English,French,Spanish; 03/25/2015
31; Food Magazines Bundle - March 24 2015 (True PDF); 03/25/2015
32; Maker Dad - Incredibly Cool  DIY Projects - Mark Frauenfelder ; 03/25/2015
33; The Great Big Book of Horrible Things - Matthew White - Mantesh; 03/25/2015
34; The Muscle And Fitness Cookbook: 55 Fast & Easy Meals for ; 03/25/2015
35; 150 Best Minimalist House Ideas; 03/25/2015
36; Assorted Magazines Bundle - March 23 2015 (True PDF); 03/25/2015
37; How to Draw Realistic Portraits: with Colored Pencils - Jasmina ; 03/25/2015
38; The 48 Laws of Power by Robert Greene; 03/25/2015
39; The Complete Guide to Bathrooms + Bath Planning Guidelines; 03/25/2015
40; Idiot's Guides: Basic Math and Pre-Algebra - Carolyn Wheater ; 03/25/2015
41; Show Me How: 500 Things You Should Know - Instructions for Life ; 03/25/2015
42; Yoga Basics for Men: An Intro to Man Flow Yoga - Dean Pohlman, P; 03/25/2015
43; Discworld Collection by Terry Pratchett; 03/25/2015
44; 1000 Foods To Eat Before You Die - Mimi Sheraton; 03/25/2015
45; 4 Diverse Books - March 2015 (gnv64); 03/25/2015
46; Assorted Magazines Bundle - March 20 2015 (True PDF); 03/25/2015
47; Educational Materials - Activity Books, Coloring Books, and Puzz; 03/25/2015
48; Learning PHP, MySQL, JavaScript, CSS & HTML5, 3e (2014).; 03/25/2015
49; Womens Magazines Bundle - March 24 2015 (True PDF); 03/25/2015
50; The Girl on the Train - Paula Hawkins; 03/25/2015
51; The Hair Bible - A Complete Guide to Health and Care,Fabulous Ha; 03/25/2015
52; The Homeowner's DIY Guide to Electrical Wiring - David Herres - ; 03/25/2015
53; 5 Chess Books - March 2015 (gnv64); 03/25/2015
54; Fruit and Vegetables in Pots (gnv64); 03/25/2015
55; PC Magazine USA - April 2015[MyebookShelf]; 03/25/2015
56; The Firefly Five Language Visual Dictionary: English, Spanish, F; 03/25/2015
57; Practical Medical Procedures at a Glance [PDF][StormRG]; 03/25/2015
58; Sex Trafficking - Inside the Business of Modern Slavery (gnv64); 03/25/2015
59; Hacking Wireless Networks For Dummies; 03/25/2015
60; Computer & Gadget Magazines - February 20 2015 (True PDF); 03/25/2015
61; The 4000 English Words Essential for an Educated Vocabulary; 03/25/2015
62; Superfoods at Every Meal - Nourish Your Family with Quick and Ea; 03/25/2015
63; Playboy's Magazine - April 2015 (USA); 03/25/2015
64; How to Study - Ron Fry - Mantesh; 03/25/2015
65; Life Skills: How to Do Almost Anything (Pdf,Epub,Mobi) - Mantesh; 03/25/2015
66; Popular Mechanics - April 2015  ZA; 03/25/2015
67; The Economist - March 14 2015  USA; 03/25/2015
68; Working with Hand Tools: Techniques for Woodworking - Paul N. Ha; 03/25/2015
69; Penthouse USA - April 2015; 03/25/2015
70; Assorted Magazines Bundle - March 14 2015 (True PDF); 03/25/2015
71; Assorted Magazines Bundle - March 15 2015 (True PDF); 03/25/2015
72; How to Clear Your Home of Ghosts & Spirits,Haunted Places; 03/25/2015
73; The Ayurveda Encyclopedia - Ayurvedic Home Remedies Collection; 03/25/2015
74; The Book of Books: Recommended Reading: Best Books (Fiction and ; 03/25/2015
75; The World's 200 Hardest Brain Teasers: Mind-Boggling Puzzles, Pr; 03/25/2015
76; How to Memorize Anything - Aditi Singhal and Sudhir Singhal; 03/25/2015
77; Problem Solving 101: A Simple Book for Smart People -Mantesh; 03/25/2015
78; Penis Exercises - A Healthy Book for Enlargement, Enhancement, H; 03/25/2015
79; Assorted Magazines Bundle - March 13 2015 (True PDF); 03/25/2015
80; Lonely Planet Discover Caribbean Islands[MyebookShelf]; 03/25/2015
81; Assorted Magazines Bundle - March 16 2015 (True PDF); 03/25/2015
82; Guitar Books for Dummies (gnv64); 03/25/2015
83; Financial Statement Analysis (11th Ed)(gnv64); 03/25/2015
84; How to Be Your Own Home Electrician,Troubleshooting and Testing ; 03/25/2015
85; 100 Photographs That Changed The World (Photography Art Ebook).p; 03/25/2015
86; The Complete Idiot's Guide to Simple Home Repair -Mantesh; 03/25/2015
87; Wired USA - April 2015 ; 03/25/2015
88; Design + Web Design books Collection; 03/25/2015
89; The Art of Seduction by Robert Greene - PDF - WD; 03/25/2015
90; Inside Architecture - Interiors by Architects (Art Ebook).pdf; 03/25/2015
91; Assorted Magazines Bundle - March 12 2015 (True PDF); 03/25/2015
92; Assorted Magazines Bundle - March 19 2015 (True PDF); 03/25/2015
93; 1001 Recipes You've Always Wanted to Cook[MyebookShelf]; 03/25/2015
94; The Nude - A Study in Ideal Form (Art Ebook).pdf; 03/25/2015
95; Principles of Hydraulic Systems Design 2E, Chapple [PDF][StormRG; 03/25/2015
96; IELTS Advantage: Reading ,Writing Skills - Jeremy Taylor , Jon W; 03/25/2015
97; 4000 Essential English Words (Audio book + eBook) 5 - Paul Natio; 03/25/2015
98; The Guinness History of Sea Warfare.pdf; 03/25/2015
99; Stephen King Books Collection Epub & Mobi - Mantesh; 03/25/2015
